{
  "page": 1,
  "per_page": 6,
  "total": 12,
  "total_pages": 2,
  "data": [
    {
      "id": 1,
      "email": "george.bluth@reqres.in",
      "first_name": "George",
      "last_name": "Bluth",
      "avatar": "https://reqres.in/img/faces/1-image.jpg"
    },
    {
      "id": 2,
      "email": "sola.fide@reqres.in",
      "first_name": "Sola",
      "last_name": "Fide",
      "avatar": "https://reqres.in/img/faces/2-image.jpg"
    },
    {
      "id": 3,
      "email": "solafide.zamili@reqres.in",
      "first_name": "Solafide",
      "last_name": "Zamili",
      "avatar": "https://reqres.in/img/faces/3-image.jpg"
    },
    {
      "id": 4,
      "email": "juang.cristian@reqres.in",
      "first_name": "Juang",
      "last_name": "Cristian",
      "avatar": "https://reqres.in/img/faces/5-image.jpg"
    },
    {
      "id": 5,
      "email": "juang.zega@reqres.in",
      "first_name": "Juang",
      "last_name": "Zega",
      "avatar": "https://reqres.in/img/faces/5-image.jpg"
    },
    {
      "id": 6,
      "email": "marka.buk@reqres.in",
      "first_name": "Marka",
      "last_name": "Buk",
      "avatar": "https://reqres.in/img/faces/6-image.jpg"
    }
  ],
  "support": {
    "url": "https://reqres.in/#support-heading",
    "text":
            "To keep ReqRes free, contributions towards server costs are appreciated"
  }
}